{
  "metadata": {
    "country": "DE",
    "currency": "EUR",
    "locale": "de_DE"
  },
  "originDestinations": [
    {
      "departure": {
        "airportCode": "LHR",
        "date": "2018-04-13",
        "terminalName": ""
      },
      "arrival": {
        "airportCode": "MAD",
        "terminalName": "",
        "time": ""
      }
    },
    {
      "departure": {
        "airportCode": "MAD",
        "date": "2018-04-28",
        "terminalName": ""
      },
      "arrival": {
        "airportCode": "LHR",
        "terminalName": "",
        "time": ""
      }
    }
  ],
  "preferences": {
    "cabin": ["5"],
    "fare": "FLE",
    "nonStop": false
  },
  "travelers": {
    "adt": 2,
    "chd": 0,
    "inf": 0
  }
}
